{
  "main": {
    "title": "개발의 끝은 어디인가",
    "name":"정승원",
    "occupation":"Software developer",
    "description1": "훌륭한 개발자란 무엇일까?  ",
    "descriptionHighlight": "수 많은 고민과 스스로 내린 답,",
    "description2": "지금 여기에서 소개합니다.",
    "image":"profilepic.jpg",
    "bio": "스물 일곱 살, 한창 쿠버네티스에 푹 빠질 나이다. 엄마가 밥을 먹으라 해도 좀처럼 방에서 나오지 않는다. 큼지막한 모니터의 반 쪽에는 파이어폭스가, 다른 반 쪽에는 터미널이 열려 있다. 검은 화면에 하얀 커서만 깜박인다. 흐음... 턱을 어루만진다. 키보드를 만진 손으로 자꾸 얼굴을 문질러서 여드름이 나지만 집중할때면 나오는 습관이라 고치기가 어렵다. 고민한다. 마지막 남은 테스트 문제가 풀릴듯 풀리지 않는 모양이다. \"cluster ip 의 대역대를 지정하는 옵션이 service-cluster-ip-range 이였던가...?\" 중얼거린다. 엄마가 다시 한 번 소리를 지른다. \"밥~먹으라고!\" 그렇게 매일 매일 불효 스택을 쌓고 있다.",
    "email": "recordable0711@gmail.com",
    "phone": "010-2238-0476",
    "address":{
      "street":"",
      "city":"고양시",
      "state":"강석로",
      "zip": "07643"
    },
    "website": "https://github.com/getwebem",
    "resumedownload":"http://something.com",
    "social":[
      {
        "name":"github",
        "url":"https://github.com/aliwo",
        "className":"fa fa-github"
      },
      {
        "name":"google-plus",
        "url":"mailto:recordable0711@gmail.com",
        "className":"fa fa-envelope"
      },
      {
        "name":"linkedin",
        "url":"https://www.linkedin.com/in/%EC%8A%B9%EC%9B%90-%EC%A0%95-a420a3100/",
        "className":"fa fa-linkedin"
      }
    ]
  },
  "resume":{
    "answers": [
      {
        "title": "건설적 귀차니즘",
        "phrase": "한가지 우려는 문자 그대로 비효율의 숙달화다...",
        "phraseBy": "watcha 기술 블로그",
        "description": "종종 개발자의 덕목으로도 여겨지는 '게으름'은 '매일의 출근을 견디지 못해 함'을 의미하는 것은 아닌 것 같습니다. 제가 정의하는 개발자로서의 '게으름'은 '충분히 자동화할 수 있는 일을 당장 시간이 없어서 개선하지 않고 늘 하던 방식대로 하는 것을 싫어함' 입니다. 그런 의미에서 저는 게으르고, 비효율을 개선하지 않고 넘어가는데 찝찝함을 느낍니다. 레터플라이에서 일할 때에는 <a style='cursor: pointer' onclick=document.getElementById('letterfly').style.display='block'>'셀레니움 결제 자동화'</a>로 제 게으름을 자랑해 보았습니다.",
        "ref": [],
        "refHidden1": "나만 보는 링크: https://medium.com/watcha/%EC%99%93%EC%B1%A0%EA%B0%80-%EB%B9%84%ED%9A%A8%EC%9C%A8%EC%9D%98-%EC%88%99%EB%8B%AC%ED%99%94%EB%A5%BC-%EC%97%86%EC%95%A0%EB%8A%94-%EB%B0%A9%EB%B2%95-f608e51bd09a",
        "refHidden2": "개발이 아니라 개발하는 과정을 디버깅 해야 한다. https://www.youtube.com/watch?v=fHyTA-UIcqs (개발자가 갖추어야 할 9가지 기술, 박종천)"
      },
      {
        "title": "장인정신",
        "phrase": "코드 품질을 측정하는 유일한 척도 = 분 당 내지르는 wtf! 횟수",
        "phraseBy": "로버트 마틴(클린 코드)",
        "description": "로버트 마틴이 잘 지적했듯 우리는 코드를 새로 작성하는 시간 보다 작성된 코드를 읽고 수정하는데에 훨씬 많은 시간을 소요합니다. 저는 그의 저서 '클린'시리즈의 앞 장에서 항상 나오는 '빨리 가는 방법은 오직 바르게 가는 방법 뿐이다.' 를 실제로 믿습니다. 최근 요기요에서 신규 Micro Service 를 만들 때 클래스의 역할 분리 & 단일 책임 원칙을 지키면서 구현했습니다.",
        "ref": []
      },
      {
        "title": "Fast Learner & Test Runner",
        "phrase": "교만은 패망의 선봉이요 거만한 마음은 넘어짐의 앞잡이니라",
        "phraseBy": "솔로몬",
        "description": "공부합니다. 빨리 배웁니다. 끊임없이 공부하는 것이야 말로 겸손의 증명이라고 생각합니다. 자신의 부족함을 인정하는 것이니까요. 한 프로젝트에서 다른 프로젝트로 넘어갈 때 마다 Angular를 배우고, 또 React 를 배우고, Kubernetes 를 배우면서 \"이렇게 간편하다니!\" 와 \"내가 이렇게 무지했다니!\"의 연속이었습니다. 계속해서 새로운 것들을 공부하는 것이 좋고, 그러한 직업을 선택했음이 자랑스럽습니다. <br/><br/> 개인의 똑똑함에 의존하기 보단 자유롭게 시도할 수 있고, 실수가 실패가 되지 않도록 막아주는 시스템을 설계하고 싶습니다. 최근 개발한 Micro Service 에서는 매 번 PR을 올리기 전에 300개의 단위 테스트를 약 1분 안에 실행하도록 하였습니다.",
        "ref": []
      }
    ],
    "education":[
      {
        "school": "인천대학교",
        "degree": "무역학부",
        "graduated": "March 2021",
        "description": "신학대학교에 불합격하고 성적에 맞추어 입학한 무역학부에서 새로운 길을 찾기 위해 애썼습니다. 1학년 GPA 4.5 를 받을 정도로 열심이었으나, 프로그래밍을 시작하고 그 모든 성적이 쓸모 없게 되었더라도 단 한번도 후회한 적은 없습니다. 아름다운 코드를 설계하는 것이 자랑스럽고, 내가 hello 할 때 connection successful 을 되돌려 주는 mysql 서버는 사랑스럽기 까지 합니다."
      }
    ],
    "lectures": [
      {
        "title": "배달앱은 어떻게 내 주변의 맛집을 찾을까?",
        "url": "https://inf.run/RNYct"
      }
    ],
    "work":[
      {
        "company": "요기요",
        "image": "yogiyo.png",
        "title": "백엔드 개발자",
        "years": "Jan 2021 ~ Now",
        "description": "MAU 800만 배달 서비스. 홈 화면에서 사용자의 위도와 경도를 기반으로 주변의 배달 가능한 음식점을 보여주는 일을 했습니다.",
        "link": ""
      },
      {
        "company": "스파르타 코딩클럽 장고 심화반 강의",
        "image": "sparta.png",
        "title": "실전 엔터프라이즈 장고 강의",
        "years": "December 2021 - January 2022",
        "description": "부트캠프에서 개발자를 꿈꾸는 학생들을 위해 현업에서 중요하게 사용되는 기술들로 무장시켜 드렸습니다. 강의 에서는 간단한 '좋아요' 기능을 구현해보면서 테스트 주도 개발 맛보기, mypy 타입체크, github action 을 사용한 테스트, django orm 의 relation 과 queryset, 그리고 transaction 과 async await 등을 다룹니다.",
        "link": ""
      },
      {
        "company": "BUV (외주)",
        "title": "버스킹 라이브 SNS",
        "image": "buv2.jpg",
        "years": "Febuary 2019 - April 2020",
        "description": "이전까지의 경험을 바탕으로 유지보수가 아닌, 백엔드를 처음부터 구현했습니다. PyTest 경험. AWS 운영 EC2, S3, Route53 을 사용 했습니다. TypeScript + Vue 관리자 페이지를 만들었습니다. <a target='_blank' href='https://play.google.com/store/apps/details?id=buv.co.kr&hl=ko'>플레이스토어</a> 에서 확인해보세요"
      },
      {
        "company": "레터플라이",
        "title": "웹 에디터로 쓰는 사랑의 편지",
        "image": "ltf.jpg",
        "years": "August 2017 - May 2018",
        "description": "프론트엔드는 Angular, 서버는 Flask 로 풀스택 개발자로 근무하였습니다. Selenium 결제 자동화. 결제 모듈 리펙토링, 묶음 배송 프로젝트(대규모)를 주도하여 개발하였습니다. <a href='https://www.letterfly.co.kr/main' target='_blank'>홈페이지</a>"
      }
    ],
    "skills":[
      {"name":"Django", "level":"85%"},
      {"name":"FastAPI", "level":"85%"},
      {"name":"Kubernetes (CKA)", "level":"70%"},
      {"name":"React", "level":"30%"},
      {"name":"English (TOEIC 955)", "level":"90%"},
      {"name":"Japanese (JLPT N3)", "level":"30%"}
    ]
  },
  "portfolio":{
    "projects": [
      {
        "title":"레터플라이",
        "category":"Flask, Angular",
        "image":"coffee.jpg",
        "modal": "letterfly"
      },
      {
        "title":"아두이노 스마트화분",
        "category":"Arduino",
        "image":"mendel.jpg",
        "modal":"mendel"
      },
      {
        "title":"Buv",
        "category":"Flask, AWS",
        "image":"buv.png",
        "modal":"#modal-03"
      },
      {
        "title":"ChocoPY",
        "category":"Photography",
        "image":"chocopy_emblem.png",
        "modal":"#modal-04"
      },
      {
        "title":"Farmer Boy",
        "category":"Branding",
        "image":"farmerboy.jpg",
        "modal":"#modal-05"
      },
      {
        "title":"Girl",
        "category":"Photography",
        "image":"girl.jpg",
        "modal":"#modal-06"
      },
      {
        "title":"Origami",
        "category":"Illustration",
        "image":"origami.jpg",
        "modal":"#modal-07"
      },
      {
        "title":"Retrocam",
        "category":"Web Development",
        "image":"retrocam.jpg",
        "modal":"#modal-08"
      }
    ]
  },
  "testimonials":{
    "testimonials":[
      {
        "text":"Being a good soldier comes down to one single question. \"How much do you willing to sacrifice?\" ",
        "user":"Crysis"
      },
      {
        "text":"Blessed are the poor in spirit, for theirs is the kingdom of heaven.",
        "user":"Jesus Christ"
      }
    ]
  }
}
